[gd_scene load_steps=6 format=2]

[ext_resource path="res://Assets/Textures/gmtk2020 furniture.png" type="Texture" id=1]
[ext_resource path="res://Scenes/Prefabs/Furniture (base).tscn" type="PackedScene" id=2]


[sub_resource type="AtlasTexture" id=5]
flags = 4
atlas = ExtResource( 1 )
region = Rect2( 167, 13, 93, 94 )

[sub_resource type="RectangleShape2D" id=2]
extents = Vector2( 45.8496, 46.2434 )

[sub_resource type="OccluderPolygon2D" id=3]
cull_mode = 1
polygon = PoolVector2Array( -23.9628, -46.0422, 41.3118, -31.2214, 45.5163, -27.8578, 45.4112, -22.8124, 30.6955, 40.9906, 27.8575, 45.1951, 23.7581, 46.5616, -40.4654, 31.6357, -45.3005, 28.4823, -45.8261, 24.2778, -30.0593, -42.153, -27.1162, -45.4115 )

[node name="Sprite" instance=ExtResource( 2 )]
texture = SubResource( 5 )

[node name="CollisionShape2D" parent="Area2D" index="0"]
shape = SubResource( 2 )

[node name="LightOccluder2D" parent="." index="1"]
occluder = SubResource( 3 )
