[gd_scene load_steps=6 format=2]

[ext_resource path="res://Assets/Textures/gmtk2020 furniture.png" type="Texture" id=1]
[ext_resource path="res://Scenes/Prefabs/Furniture (base).tscn" type="PackedScene" id=2]


[sub_resource type="AtlasTexture" id=1]
flags = 4
atlas = ExtResource( 1 )
region = Rect2( 19, 18, 129, 120 )

[sub_resource type="RectangleShape2D" id=2]
extents = Vector2( 64.6145, 59.8451 )

[sub_resource type="OccluderPolygon2D" id=3]
cull_mode = 1
polygon = PoolVector2Array( -64.0088, -54.0875, -62.5914, -57.7097, -60.1981, -59.7564, 59.9359, -59.9146, 63.1126, -57.7666, 64.3456, -53.93, 64.3475, 55.0076, 62.6964, 57.8997, 58.9797, 59.5807, -59.0458, 59.5588, -62.2904, 58.3007, -64.1444, 55.3871 )

[node name="Sprite" instance=ExtResource( 2 )]
texture = SubResource( 1 )

[node name="CollisionShape2D" parent="Area2D" index="0"]
shape = SubResource( 2 )

[node name="LightOccluder2D" parent="." index="1"]
scale = Vector2( 1.00154, 1.00742 )
occluder = SubResource( 3 )
