[gd_scene load_steps=6 format=2]

[ext_resource path="res://Scenes/Prefabs/Furniture (base).tscn" type="PackedScene" id=1]
[ext_resource path="res://Assets/Textures/gmtk2020 furniture.png" type="Texture" id=2]

[sub_resource type="AtlasTexture" id=17]
flags = 4
atlas = ExtResource( 2 )
region = Rect2( 757, 13, 95, 176 )

[sub_resource type="RectangleShape2D" id=2]
extents = Vector2( 47.6679, 87.9667 )

[sub_resource type="OccluderPolygon2D" id=3]
cull_mode = 1
polygon = PoolVector2Array( -45.8935, -88.0133, 45.8983, -88.0133, 47.6681, -86.3616, 47.6681, 86.3674, 46.1343, 87.7832, -45.7755, 87.9012, -47.5453, 86.4854, -47.5453, -86.4795 )

[node name="Sprite" instance=ExtResource( 1 )]
texture = SubResource( 17 )

[node name="CollisionShape2D" parent="Area2D" index="0"]
shape = SubResource( 2 )

[node name="LightOccluder2D" parent="." index="1"]
occluder = SubResource( 3 )
