[gd_scene load_steps=6 format=2]

[ext_resource path="res://Scenes/Prefabs/Furniture (base).tscn" type="PackedScene" id=1]
[ext_resource path="res://Assets/Textures/gmtk2020 furniture.png" type="Texture" id=2]

[sub_resource type="AtlasTexture" id=11]
flags = 4
atlas = ExtResource( 2 )
region = Rect2( 420, 230, 157, 162 )

[sub_resource type="RectangleShape2D" id=2]
extents = Vector2( 78.8493, 81.0623 )

[sub_resource type="OccluderPolygon2D" id=3]
cull_mode = 1
polygon = PoolVector2Array( -77.1514, -81.0445, 76.3552, -80.8777, 78.6912, -79.376, 78.6912, 57.612, 76.0861, 59.3289, 76.0215, 77.9683, 74.0192, 80.1374, -74.3149, 80.4711, -76.8177, 78.8026, -76.7412, 59.4225, -78.3194, 57.9457, -78.8199, -79.2091 )

[node name="Sprite" instance=ExtResource( 1 )]
texture = SubResource( 11 )

[node name="CollisionShape2D" parent="Area2D" index="0"]
shape = SubResource( 2 )

[node name="LightOccluder2D" parent="." index="1"]
occluder = SubResource( 3 )
