[gd_scene load_steps=6 format=2]

[ext_resource path="res://Scenes/Prefabs/Furniture (base).tscn" type="PackedScene" id=1]
[ext_resource path="res://Assets/Textures/gmtk2020 furniture.png" type="Texture" id=2]

[sub_resource type="AtlasTexture" id=9]
flags = 4
atlas = ExtResource( 2 )
region = Rect2( 213, 150, 161, 208 )

[sub_resource type="RectangleShape2D" id=2]
extents = Vector2( 80.4324, 102.934 )

[sub_resource type="OccluderPolygon2D" id=3]
cull_mode = 1
polygon = PoolVector2Array( -78.8359, -102.896, 79.0089, -103.063, 80.5106, -101.395, 80.5106, 42.7679, 79.3426, 44.2696, -41.6272, 44.1028, 38.9637, 88.3194, 40.1317, 90.6553, 33.2907, 102.502, 31.9558, 103.503, -55.3093, 55.1152, -56.1436, 52.4455, -51.8054, 43.9359, -79.0027, 44.2696, -80.5044, 42.6011, -80.5044, -101.061 )

[node name="Sprite" instance=ExtResource( 1 )]
texture = SubResource( 9 )

[node name="CollisionShape2D" parent="Area2D" index="0"]
shape = SubResource( 2 )

[node name="LightOccluder2D" parent="." index="1"]
scale = Vector2( 1.0071, 1.0063 )
occluder = SubResource( 3 )
