[gd_resource type="DynamicFont" load_steps=2 format=2]

[sub_resource type="DynamicFontData" id=1]
font_path = "res://Assets/Fonts/Lora-Regular.ttf"

[resource]
outline_color = Color( 0.34902, 0.678431, 0.462745, 1 )
use_mipmaps = true
use_filter = true
font_data = SubResource( 1 )
