[gd_scene load_steps=5 format=2]

[ext_resource path="res://Assets/Textures/lvl1 objects.png" type="Texture" id=1]
[ext_resource path="res://Scenes/Prefabs/Furniture (base).tscn" type="PackedScene" id=2]

[sub_resource type="AtlasTexture" id=1]
flags = 4
atlas = ExtResource( 1 )
region = Rect2( 43, 155, 24, 29 )

[sub_resource type="RectangleShape2D" id=2]
extents = Vector2( 12.5706, 14.7739 )

[node name="Sprite" instance=ExtResource( 2 )]
texture = SubResource( 1 )

[node name="CollisionShape2D" parent="Area2D" index="0"]
shape = SubResource( 2 )

[node name="LightOccluder2D" parent="." index="1"]
light_mask = 0
position = Vector2( -0.264862, 0.132433 )
scale = Vector2( 1.04029, 1.01568 )
light_mask = 0
