[gd_scene load_steps=7 format=2]

[ext_resource path="res://Assets/Textures/lvl1 objects.png" type="Texture" id=1]
[ext_resource path="res://Scenes/Prefabs/Furniture (base).tscn" type="PackedScene" id=2]

[sub_resource type="AtlasTexture" id=1]
flags = 4
atlas = ExtResource( 1 )
region = Rect2( 166, 14, 62, 81 )

[sub_resource type="RectangleShape2D" id=2]
extents = Vector2( 32.3498, 39.7164 )

[sub_resource type="OccluderPolygon2D" id=3]
cull_mode = 1
polygon = PoolVector2Array( -5.24608, -32.7728, 7.05629, 6.11854, 29.6768, -0.826336, 17.5728, -39.5192 )

[sub_resource type="OccluderPolygon2D" id=4]
cull_mode = 1
polygon = PoolVector2Array( -25.6839, 11.0792, 13.8027, 15.8414, 11.6201, 39.2555, -29.2555, 34.0965 )

[node name="Sprite" instance=ExtResource( 2 )]
texture = SubResource( 1 )

[node name="CollisionShape2D" parent="Area2D" index="0"]
shape = SubResource( 2 )

[node name="LightOccluder2D" parent="." index="1"]
occluder = SubResource( 3 )

[node name="LightOccluder2D 2" type="LightOccluder2D" parent="." index="3"]
occluder = SubResource( 4 )
