[gd_scene load_steps=6 format=2]

[ext_resource path="res://Assets/Textures/lvl1 objects.png" type="Texture" id=1]
[ext_resource path="res://Scenes/Prefabs/Furniture (base).tscn" type="PackedScene" id=2]

[sub_resource type="AtlasTexture" id=1]
flags = 4
atlas = ExtResource( 1 )
region = Rect2( 5, 6, 129, 85 )

[sub_resource type="RectangleShape2D" id=3]
extents = Vector2( 63.654, 48.4483 )

[sub_resource type="OccluderPolygon2D" id=2]
cull_mode = 1
polygon = PoolVector2Array( -43.4285, -42.235, 28.072, -26.6434, 41.1437, -3.96485, 57.2077, -7.58712, 58.3101, -5.85473, 57.9951, -3.64987, 55.6328, -1.91748, 56.4202, 0.287384, 61.4599, 1.23233, 62.5623, 5.79954, 60.3575, 8.63436, 57.9951, 14.1465, 44.9234, 7.05946, 44.451, 17.1388, -2.49249, 39.6181, -42.7108, 31.3534, -61.9012, 8.97824, -58.0751, -26.3284 )

[node name="Sprite" instance=ExtResource( 2 )]
texture = SubResource( 1 )

[node name="CollisionShape2D" parent="Area2D" index="0"]
visible = false
shape = SubResource( 3 )

[node name="LightOccluder2D" parent="." index="1"]
scale = Vector2( 1.00618, 1.01903 )
occluder = SubResource( 2 )
