[gd_scene load_steps=7 format=2]

[ext_resource path="res://Scripts/Camera.cs" type="Script" id=1]
[ext_resource path="res://Assets/Music/Because_For_Everything_There_Is_Someone.ogg" type="AudioStream" id=2]
[ext_resource path="res://Scripts/MusicController.cs" type="Script" id=3]
[ext_resource path="res://Assets/Music/Beyond_the_Lows.ogg" type="AudioStream" id=4]
[ext_resource path="res://Assets/Music/Hard_To_Let_Go_of_Grammar.ogg" type="AudioStream" id=5]
[ext_resource path="res://Assets/Music/The_Six_Realms.ogg" type="AudioStream" id=6]

[node name="Camera" type="Camera2D"]
position = Vector2( 512, 301 )
current = true
limit_smoothed = true
smoothing_enabled = true
script = ExtResource( 1 )
effect = 10.0

[node name="Music Controller" type="Node2D" parent="."]
script = ExtResource( 3 )
streams = [ ExtResource( 2 ), ExtResource( 4 ), ExtResource( 5 ), ExtResource( 6 ) ]

[node name="Background Music" type="AudioStreamPlayer" parent="Music Controller"]
bus = "Music"
