[gd_scene load_steps=6 format=2]

[ext_resource path="res://icon.png" type="Texture" id=1]
[ext_resource path="res://Assets/Fonts/LabelFont.tres" type="DynamicFont" id=2]
[ext_resource path="res://Scripts/Furniture.cs" type="Script" id=3]
[ext_resource path="res://Assets/Theme.tres" type="Theme" id=4]

[sub_resource type="RectangleShape2D" id=1]
extents = Vector2( 32.3498, 32.5809 )

[node name="Sprite" type="Sprite"]
texture = ExtResource( 1 )
script = ExtResource( 3 )

[node name="Area2D" type="Area2D" parent="."]

[node name="CollisionShape2D" type="CollisionShape2D" parent="Area2D"]
shape = SubResource( 1 )

[node name="LightOccluder2D" type="LightOccluder2D" parent="."]

[node name="CanvasLayer" type="CanvasLayer" parent="."]

[node name="Label" type="Label" parent="CanvasLayer"]
visible = false
light_mask = 8
margin_right = 8.0
margin_bottom = 30.0
grow_horizontal = 2
grow_vertical = 2
size_flags_horizontal = 4
theme = ExtResource( 4 )
custom_fonts/font = ExtResource( 2 )
align = 1
valign = 1
__meta__ = {
"_edit_use_anchors_": false
}
